# Blender MTL File: 'iss.blend'
# Material Count: 77

newmtl allum
Ns 200.000000
Ka 0.705000 0.705000 0.705000
Kd 0.666667 0.674510 0.643137
Ks 0.300000 0.300000 0.300000
Ke 0.000000 0.000000 0.000000
Ni 1.000000
d 1.000000
illum 2
shell.density 2698.899902
shell.heat_capacity 903.000000
shell.thermal_conductivity 237.000000
shell.thickness 0.010000
front.specular_reflectance 0.200000
front.diffuse_reflectance 0.100000
front.absorbance 0.700000
front.transmittance 0.000000
front.emissivity 0.900000
rear.specular_reflectance 0.200000
rear.diffuse_reflectance 0.100000
rear.absorbance 0.700000
rear.transmittance 0.000000
rear.emissivity 0.900000

newmtl allum.001
Ns 200.000000
Ka 0.705000 0.705000 0.705000
Kd 0.666667 0.674510 0.643137
Ks 0.300000 0.300000 0.300000
Ke 0.000000 0.000000 0.000000
Ni 1.000000
d 1.000000
illum 2
shell.density 2698.899902
shell.heat_capacity 903.000000
shell.thermal_conductivity 237.000000
shell.thickness 0.010000
front.specular_reflectance 0.200000
front.diffuse_reflectance 0.100000
front.absorbance 0.700000
front.transmittance 0.000000
front.emissivity 0.900000
rear.specular_reflectance 0.200000
rear.diffuse_reflectance 0.100000
rear.absorbance 0.700000
rear.transmittance 0.000000
rear.emissivity 0.900000

newmtl allum.002
Ns 200.000000
Ka 0.705000 0.705000 0.705000
Kd 0.666667 0.674510 0.643137
Ks 0.300000 0.300000 0.300000
Ke 0.000000 0.000000 0.000000
Ni 1.000000
d 1.000000
illum 2
shell.density 2698.899902
shell.heat_capacity 903.000000
shell.thermal_conductivity 237.000000
shell.thickness 0.010000
front.specular_reflectance 0.200000
front.diffuse_reflectance 0.100000
front.absorbance 0.700000
front.transmittance 0.000000
front.emissivity 0.900000
rear.specular_reflectance 0.200000
rear.diffuse_reflectance 0.100000
rear.absorbance 0.700000
rear.transmittance 0.000000
rear.emissivity 0.900000

newmtl allum.003
Ns 200.000000
Ka 0.705000 0.705000 0.705000
Kd 0.666667 0.674510 0.643137
Ks 0.300000 0.300000 0.300000
Ke 0.000000 0.000000 0.000000
Ni 1.000000
d 1.000000
illum 2
shell.density 2698.899902
shell.heat_capacity 903.000000
shell.thermal_conductivity 237.000000
shell.thickness 0.010000
front.specular_reflectance 0.200000
front.diffuse_reflectance 0.100000
front.absorbance 0.700000
front.transmittance 0.000000
front.emissivity 0.900000
rear.specular_reflectance 0.200000
rear.diffuse_reflectance 0.100000
rear.absorbance 0.700000
rear.transmittance 0.000000
rear.emissivity 0.900000

newmtl blackmat
Ns 400.000000
Ka 1.000000 1.000000 1.000000
Kd 0.000000 0.000000 0.000000
Ks 0.000000 0.000000 0.000000
Ke 0.000000 0.000000 0.000000
Ni 1.000000
d 1.000000
illum 2
shell.density 2698.899902
shell.heat_capacity 903.000000
shell.thermal_conductivity 237.000000
shell.thickness 0.010000
front.specular_reflectance 0.200000
front.diffuse_reflectance 0.100000
front.absorbance 0.700000
front.transmittance 0.000000
front.emissivity 0.900000
rear.specular_reflectance 0.200000
rear.diffuse_reflectance 0.100000
rear.absorbance 0.700000
rear.transmittance 0.000000
rear.emissivity 0.900000

newmtl blackmat.001
Ns 400.000000
Ka 1.000000 1.000000 1.000000
Kd 0.000000 0.000000 0.000000
Ks 0.000000 0.000000 0.000000
Ke 0.000000 0.000000 0.000000
Ni 1.000000
d 1.000000
illum 2
shell.density 2698.899902
shell.heat_capacity 903.000000
shell.thermal_conductivity 237.000000
shell.thickness 0.010000
front.specular_reflectance 0.200000
front.diffuse_reflectance 0.100000
front.absorbance 0.700000
front.transmittance 0.000000
front.emissivity 0.900000
rear.specular_reflectance 0.200000
rear.diffuse_reflectance 0.100000
rear.absorbance 0.700000
rear.transmittance 0.000000
rear.emissivity 0.900000

newmtl blackmat.002
Ns 400.000000
Ka 1.000000 1.000000 1.000000
Kd 0.000000 0.000000 0.000000
Ks 0.000000 0.000000 0.000000
Ke 0.000000 0.000000 0.000000
Ni 1.000000
d 1.000000
illum 2
shell.density 2698.899902
shell.heat_capacity 903.000000
shell.thermal_conductivity 237.000000
shell.thickness 0.010000
front.specular_reflectance 0.200000
front.diffuse_reflectance 0.100000
front.absorbance 0.700000
front.transmittance 0.000000
front.emissivity 0.900000
rear.specular_reflectance 0.200000
rear.diffuse_reflectance 0.100000
rear.absorbance 0.700000
rear.transmittance 0.000000
rear.emissivity 0.900000

newmtl blue_gray
Ns 400.000000
Ka 1.000000 1.000000 1.000000
Kd 0.662745 0.705882 0.752941
Ks 0.000000 0.000000 0.000000
Ke 0.000000 0.000000 0.000000
Ni 1.000000
d 1.000000
illum 2
shell.density 2698.899902
shell.heat_capacity 903.000000
shell.thermal_conductivity 237.000000
shell.thickness 0.010000
front.specular_reflectance 0.200000
front.diffuse_reflectance 0.100000
front.absorbance 0.700000
front.transmittance 0.000000
front.emissivity 0.900000
rear.specular_reflectance 0.200000
rear.diffuse_reflectance 0.100000
rear.absorbance 0.700000
rear.transmittance 0.000000
rear.emissivity 0.900000

newmtl body
Ns 149.019608
Ka 0.650000 0.650000 0.650000
Kd 0.956863 0.917647 0.850980
Ks 0.150000 0.150000 0.150000
Ke 0.000000 0.000000 0.000000
Ni 1.000000
d 1.000000
illum 2
shell.density 2698.899902
shell.heat_capacity 903.000000
shell.thermal_conductivity 237.000000
shell.thickness 0.010000
front.specular_reflectance 0.200000
front.diffuse_reflectance 0.100000
front.absorbance 0.700000
front.transmittance 0.000000
front.emissivity 0.900000
rear.specular_reflectance 0.200000
rear.diffuse_reflectance 0.100000
rear.absorbance 0.700000
rear.transmittance 0.000000
rear.emissivity 0.900000
map_Bump  Textures\\wrinkles1.tga

newmtl brassallum
Ns 200.000000
Ka 0.800000 0.800000 0.800000
Kd 0.741176 0.690196 0.576471
Ks 0.300000 0.300000 0.300000
Ke 0.000000 0.000000 0.000000
Ni 1.000000
d 1.000000
illum 2
shell.density 2698.899902
shell.heat_capacity 903.000000
shell.thermal_conductivity 237.000000
shell.thickness 0.010000
front.specular_reflectance 0.200000
front.diffuse_reflectance 0.100000
front.absorbance 0.700000
front.transmittance 0.000000
front.emissivity 0.900000
rear.specular_reflectance 0.200000
rear.diffuse_reflectance 0.100000
rear.absorbance 0.700000
rear.transmittance 0.000000
rear.emissivity 0.900000

newmtl brassallum.001
Ns 200.000000
Ka 0.800000 0.800000 0.800000
Kd 0.741176 0.690196 0.576471
Ks 0.300000 0.300000 0.300000
Ke 0.000000 0.000000 0.000000
Ni 1.000000
d 1.000000
illum 2
shell.density 2698.899902
shell.heat_capacity 903.000000
shell.thermal_conductivity 237.000000
shell.thickness 0.010000
front.specular_reflectance 0.200000
front.diffuse_reflectance 0.100000
front.absorbance 0.700000
front.transmittance 0.000000
front.emissivity 0.900000
rear.specular_reflectance 0.200000
rear.diffuse_reflectance 0.100000
rear.absorbance 0.700000
rear.transmittance 0.000000
rear.emissivity 0.900000

newmtl brassallum.002
Ns 200.000000
Ka 0.800000 0.800000 0.800000
Kd 0.741176 0.690196 0.576471
Ks 0.300000 0.300000 0.300000
Ke 0.000000 0.000000 0.000000
Ni 1.000000
d 1.000000
illum 2
shell.density 2698.899902
shell.heat_capacity 903.000000
shell.thermal_conductivity 237.000000
shell.thickness 0.010000
front.specular_reflectance 0.200000
front.diffuse_reflectance 0.100000
front.absorbance 0.700000
front.transmittance 0.000000
front.emissivity 0.900000
rear.specular_reflectance 0.200000
rear.diffuse_reflectance 0.100000
rear.absorbance 0.700000
rear.transmittance 0.000000
rear.emissivity 0.900000

newmtl fgb-aft
Ns 800.000000
Ka 1.000000 1.000000 1.000000
Kd 1.000000 1.000000 1.000000
Ks 1.000000 1.000000 1.000000
Ke 0.000000 0.000000 0.000000
Ni 1.000000
d 1.000000
illum 2
shell.density 2698.899902
shell.heat_capacity 903.000000
shell.thermal_conductivity 237.000000
shell.thickness 0.010000
front.specular_reflectance 0.200000
front.diffuse_reflectance 0.100000
front.absorbance 0.700000
front.transmittance 0.000000
front.emissivity 0.900000
rear.specular_reflectance 0.200000
rear.diffuse_reflectance 0.100000
rear.absorbance 0.700000
rear.transmittance 0.000000
rear.emissivity 0.900000
map_Kd Objects\Modules\fgb\fgb-aft.jpg
map_Bump  Objects\\Modules\\fgb\\fgb-aft_b.jpg
map_Ks  Objects\\Modules\\fgb\\fgb-aft_s.jpg

newmtl fgb-bumpber-black
Ns 400.000000
Ka 1.000000 1.000000 1.000000
Kd 0.000000 0.000000 0.000000
Ks 0.000000 0.000000 0.000000
Ke 0.000000 0.000000 0.000000
Ni 1.000000
d 1.000000
illum 2
shell.density 2698.899902
shell.heat_capacity 903.000000
shell.thermal_conductivity 237.000000
shell.thickness 0.010000
front.specular_reflectance 0.200000
front.diffuse_reflectance 0.100000
front.absorbance 0.700000
front.transmittance 0.000000
front.emissivity 0.900000
rear.specular_reflectance 0.200000
rear.diffuse_reflectance 0.100000
rear.absorbance 0.700000
rear.transmittance 0.000000
rear.emissivity 0.900000

newmtl fgb-bumpber-red
Ns 400.000000
Ka 1.000000 1.000000 1.000000
Kd 0.623529 0.000000 0.000000
Ks 0.800000 0.800000 0.800000
Ke 0.000000 0.000000 0.000000
Ni 1.000000
d 1.000000
illum 2
shell.density 2698.899902
shell.heat_capacity 903.000000
shell.thermal_conductivity 237.000000
shell.thickness 0.010000
front.specular_reflectance 0.200000
front.diffuse_reflectance 0.100000
front.absorbance 0.700000
front.transmittance 0.000000
front.emissivity 0.900000
rear.specular_reflectance 0.200000
rear.diffuse_reflectance 0.100000
rear.absorbance 0.700000
rear.transmittance 0.000000
rear.emissivity 0.900000

newmtl fgb-handrail
Ns 400.000000
Ka 1.000000 1.000000 1.000000
Kd 1.000000 1.000000 1.000000
Ks 0.900000 0.900000 0.900000
Ke 0.000000 0.000000 0.000000
Ni 1.000000
d 1.000000
illum 2
shell.density 2698.899902
shell.heat_capacity 903.000000
shell.thermal_conductivity 237.000000
shell.thickness 0.010000
front.specular_reflectance 0.200000
front.diffuse_reflectance 0.100000
front.absorbance 0.700000
front.transmittance 0.000000
front.emissivity 0.900000
rear.specular_reflectance 0.200000
rear.diffuse_reflectance 0.100000
rear.absorbance 0.700000
rear.transmittance 0.000000
rear.emissivity 0.900000

newmtl fgb-orangewrinkled
Ns 400.000000
Ka 1.000000 1.000000 1.000000
Kd 0.913726 0.580392 0.247059
Ks 0.000000 0.000000 0.000000
Ke 0.000000 0.000000 0.000000
Ni 1.000000
d 1.000000
illum 2
shell.density 2698.899902
shell.heat_capacity 903.000000
shell.thermal_conductivity 237.000000
shell.thickness 0.010000
front.specular_reflectance 0.200000
front.diffuse_reflectance 0.100000
front.absorbance 0.700000
front.transmittance 0.000000
front.emissivity 0.900000
rear.specular_reflectance 0.200000
rear.diffuse_reflectance 0.100000
rear.absorbance 0.700000
rear.transmittance 0.000000
rear.emissivity 0.900000

newmtl fgb-rad
Ns 400.000000
Ka 1.000000 1.000000 1.000000
Kd 1.000000 1.000000 1.000000
Ks 0.900000 0.900000 0.900000
Ke 0.000000 0.000000 0.000000
Ni 1.000000
d 1.000000
illum 2
shell.density 2698.899902
shell.heat_capacity 903.000000
shell.thermal_conductivity 237.000000
shell.thickness 0.010000
front.specular_reflectance 0.200000
front.diffuse_reflectance 0.100000
front.absorbance 0.700000
front.transmittance 0.000000
front.emissivity 0.900000
rear.specular_reflectance 0.200000
rear.diffuse_reflectance 0.100000
rear.absorbance 0.700000
rear.transmittance 0.000000
rear.emissivity 0.900000
map_Bump  Objects\\Modules\\fgb\\fgb-rad_b.jpg

newmtl fgb-reboost
Ns 200.000000
Ka 0.705000 0.705000 0.705000
Kd 0.666667 0.674510 0.643137
Ks 0.300000 0.300000 0.300000
Ke 0.000000 0.000000 0.000000
Ni 1.000000
d 1.000000
illum 2
shell.density 2698.899902
shell.heat_capacity 903.000000
shell.thermal_conductivity 237.000000
shell.thickness 0.010000
front.specular_reflectance 0.200000
front.diffuse_reflectance 0.100000
front.absorbance 0.700000
front.transmittance 0.000000
front.emissivity 0.900000
rear.specular_reflectance 0.200000
rear.diffuse_reflectance 0.100000
rear.absorbance 0.700000
rear.transmittance 0.000000
rear.emissivity 0.900000

newmtl fgb-shield
Ns 400.000000
Ka 0.900000 0.900000 0.900000
Kd 1.000000 1.000000 1.000000
Ks 0.100000 0.100000 0.100000
Ke 0.000000 0.000000 0.000000
Ni 1.000000
d 1.000000
illum 2
shell.density 2698.899902
shell.heat_capacity 903.000000
shell.thermal_conductivity 237.000000
shell.thickness 0.010000
front.specular_reflectance 0.200000
front.diffuse_reflectance 0.100000
front.absorbance 0.700000
front.transmittance 0.000000
front.emissivity 0.900000
rear.specular_reflectance 0.200000
rear.diffuse_reflectance 0.100000
rear.absorbance 0.700000
rear.transmittance 0.000000
rear.emissivity 0.900000

newmtl fgb-side
Ns 200.000000
Ka 0.650000 0.650000 0.650000
Kd 0.956863 0.917647 0.850980
Ks 0.300000 0.300000 0.300000
Ke 0.000000 0.000000 0.000000
Ni 1.000000
d 1.000000
illum 2
shell.density 2698.899902
shell.heat_capacity 903.000000
shell.thermal_conductivity 237.000000
shell.thickness 0.010000
front.specular_reflectance 0.200000
front.diffuse_reflectance 0.100000
front.absorbance 0.700000
front.transmittance 0.000000
front.emissivity 0.900000
rear.specular_reflectance 0.200000
rear.diffuse_reflectance 0.100000
rear.absorbance 0.700000
rear.transmittance 0.000000
rear.emissivity 0.900000
map_Kd Objects\Modules\fgb\fgb-side.jpg
map_Bump  Objects\\Modules\\fgb\\fgb-side_b.jpg

newmtl fgb-thrust
Ns 400.000000
Ka 0.400000 0.400000 0.400000
Kd 0.792157 0.458824 0.235294
Ks 0.700000 0.700000 0.700000
Ke 0.000000 0.000000 0.000000
Ni 1.000000
d 1.000000
illum 2
shell.density 2698.899902
shell.heat_capacity 903.000000
shell.thermal_conductivity 237.000000
shell.thickness 0.010000
front.specular_reflectance 0.200000
front.diffuse_reflectance 0.100000
front.absorbance 0.700000
front.transmittance 0.000000
front.emissivity 0.900000
rear.specular_reflectance 0.200000
rear.diffuse_reflectance 0.100000
rear.absorbance 0.700000
rear.transmittance 0.000000
rear.emissivity 0.900000

newmtl gold
Ns 200.000000
Ka 0.705000 0.705000 0.705000
Kd 0.650980 0.470588 0.200000
Ks 0.600000 0.600000 0.600000
Ke 0.000000 0.000000 0.000000
Ni 1.000000
d 1.000000
illum 2
shell.density 2698.899902
shell.heat_capacity 903.000000
shell.thermal_conductivity 237.000000
shell.thickness 0.010000
front.specular_reflectance 0.200000
front.diffuse_reflectance 0.100000
front.absorbance 0.700000
front.transmittance 0.000000
front.emissivity 0.900000
rear.specular_reflectance 0.200000
rear.diffuse_reflectance 0.100000
rear.absorbance 0.700000
rear.transmittance 0.000000
rear.emissivity 0.900000

newmtl gold.001
Ns 200.000000
Ka 0.705000 0.705000 0.705000
Kd 0.650980 0.470588 0.200000
Ks 0.600000 0.600000 0.600000
Ke 0.000000 0.000000 0.000000
Ni 1.000000
d 1.000000
illum 2
shell.density 2698.899902
shell.heat_capacity 903.000000
shell.thermal_conductivity 237.000000
shell.thickness 0.010000
front.specular_reflectance 0.200000
front.diffuse_reflectance 0.100000
front.absorbance 0.700000
front.transmittance 0.000000
front.emissivity 0.900000
rear.specular_reflectance 0.200000
rear.diffuse_reflectance 0.100000
rear.absorbance 0.700000
rear.transmittance 0.000000
rear.emissivity 0.900000

newmtl grapple-black
Ns 400.000000
Ka 1.000000 1.000000 1.000000
Kd 0.000000 0.000000 0.000000
Ks 0.000000 0.000000 0.000000
Ke 0.000000 0.000000 0.000000
Ni 1.000000
d 1.000000
illum 2
shell.density 2698.899902
shell.heat_capacity 903.000000
shell.thermal_conductivity 237.000000
shell.thickness 0.010000
front.specular_reflectance 0.200000
front.diffuse_reflectance 0.100000
front.absorbance 0.700000
front.transmittance 0.000000
front.emissivity 0.900000
rear.specular_reflectance 0.200000
rear.diffuse_reflectance 0.100000
rear.absorbance 0.700000
rear.transmittance 0.000000
rear.emissivity 0.900000

newmtl grapple-white
Ns 400.000000
Ka 1.000000 1.000000 1.000000
Kd 1.000000 1.000000 1.000000
Ks 0.000000 0.000000 0.000000
Ke 0.000000 0.000000 0.000000
Ni 1.000000
d 1.000000
illum 2
shell.density 2698.899902
shell.heat_capacity 903.000000
shell.thermal_conductivity 237.000000
shell.thickness 0.010000
front.specular_reflectance 0.200000
front.diffuse_reflectance 0.100000
front.absorbance 0.700000
front.transmittance 0.000000
front.emissivity 0.900000
rear.specular_reflectance 0.200000
rear.diffuse_reflectance 0.100000
rear.absorbance 0.700000
rear.transmittance 0.000000
rear.emissivity 0.900000

newmtl gray_metal
Ns 200.000000
Ka 1.000000 1.000000 1.000000
Kd 0.317647 0.317647 0.317647
Ks 0.300000 0.300000 0.300000
Ke 0.000000 0.000000 0.000000
Ni 1.000000
d 1.000000
illum 2
shell.density 2698.899902
shell.heat_capacity 903.000000
shell.thermal_conductivity 237.000000
shell.thickness 0.010000
front.specular_reflectance 0.200000
front.diffuse_reflectance 0.100000
front.absorbance 0.700000
front.transmittance 0.000000
front.emissivity 0.900000
rear.specular_reflectance 0.200000
rear.diffuse_reflectance 0.100000
rear.absorbance 0.700000
rear.transmittance 0.000000
rear.emissivity 0.900000

newmtl gray_metal_sm
Ns 200.000000
Ka 1.000000 1.000000 1.000000
Kd 0.317647 0.317647 0.317647
Ks 0.300000 0.300000 0.300000
Ke 0.000000 0.000000 0.000000
Ni 1.000000
d 1.000000
illum 2
shell.density 2698.899902
shell.heat_capacity 903.000000
shell.thermal_conductivity 237.000000
shell.thickness 0.010000
front.specular_reflectance 0.200000
front.diffuse_reflectance 0.100000
front.absorbance 0.700000
front.transmittance 0.000000
front.emissivity 0.900000
rear.specular_reflectance 0.200000
rear.diffuse_reflectance 0.100000
rear.absorbance 0.700000
rear.transmittance 0.000000
rear.emissivity 0.900000

newmtl greengold_metal
Ns 200.000000
Ka 0.800000 0.800000 0.800000
Kd 0.741176 0.690196 0.576471
Ks 0.300000 0.300000 0.300000
Ke 0.000000 0.000000 0.000000
Ni 1.000000
d 1.000000
illum 2
shell.density 2698.899902
shell.heat_capacity 903.000000
shell.thermal_conductivity 237.000000
shell.thickness 0.010000
front.specular_reflectance 0.200000
front.diffuse_reflectance 0.100000
front.absorbance 0.700000
front.transmittance 0.000000
front.emissivity 0.900000
rear.specular_reflectance 0.200000
rear.diffuse_reflectance 0.100000
rear.absorbance 0.700000
rear.transmittance 0.000000
rear.emissivity 0.900000

newmtl handrail
Ns 400.000000
Ka 1.000000 1.000000 1.000000
Kd 1.000000 1.000000 1.000000
Ks 0.900000 0.900000 0.900000
Ke 0.000000 0.000000 0.000000
Ni 1.000000
d 1.000000
illum 2
shell.density 2698.899902
shell.heat_capacity 903.000000
shell.thermal_conductivity 237.000000
shell.thickness 0.010000
front.specular_reflectance 0.200000
front.diffuse_reflectance 0.100000
front.absorbance 0.700000
front.transmittance 0.000000
front.emissivity 0.900000
rear.specular_reflectance 0.200000
rear.diffuse_reflectance 0.100000
rear.absorbance 0.700000
rear.transmittance 0.000000
rear.emissivity 0.900000

newmtl handrail.001
Ns 200.000000
Ka 0.705000 0.705000 0.705000
Kd 0.933333 0.729412 0.250980
Ks 0.300000 0.300000 0.300000
Ke 0.000000 0.000000 0.000000
Ni 1.000000
d 1.000000
illum 2
shell.density 2698.899902
shell.heat_capacity 903.000000
shell.thermal_conductivity 237.000000
shell.thickness 0.010000
front.specular_reflectance 0.200000
front.diffuse_reflectance 0.100000
front.absorbance 0.700000
front.transmittance 0.000000
front.emissivity 0.900000
rear.specular_reflectance 0.200000
rear.diffuse_reflectance 0.100000
rear.absorbance 0.700000
rear.transmittance 0.000000
rear.emissivity 0.900000

newmtl hatch_allum
Ns 200.000000
Ka 0.705000 0.705000 0.705000
Kd 0.701961 0.682353 0.615686
Ks 0.300000 0.300000 0.300000
Ke 0.000000 0.000000 0.000000
Ni 1.000000
d 1.000000
illum 2
shell.density 2698.899902
shell.heat_capacity 903.000000
shell.thermal_conductivity 237.000000
shell.thickness 0.010000
front.specular_reflectance 0.200000
front.diffuse_reflectance 0.100000
front.absorbance 0.700000
front.transmittance 0.000000
front.emissivity 0.900000
rear.specular_reflectance 0.200000
rear.diffuse_reflectance 0.100000
rear.absorbance 0.700000
rear.transmittance 0.000000
rear.emissivity 0.900000

newmtl hatch_allum.001
Ns 200.000000
Ka 0.705000 0.705000 0.705000
Kd 0.701961 0.682353 0.615686
Ks 0.300000 0.300000 0.300000
Ke 0.000000 0.000000 0.000000
Ni 1.000000
d 1.000000
illum 2
shell.density 2698.899902
shell.heat_capacity 903.000000
shell.thermal_conductivity 237.000000
shell.thickness 0.010000
front.specular_reflectance 0.200000
front.diffuse_reflectance 0.100000
front.absorbance 0.700000
front.transmittance 0.000000
front.emissivity 0.900000
rear.specular_reflectance 0.200000
rear.diffuse_reflectance 0.100000
rear.absorbance 0.700000
rear.transmittance 0.000000
rear.emissivity 0.900000

newmtl hatch_allum.002
Ns 200.000000
Ka 0.705000 0.705000 0.705000
Kd 0.701961 0.682353 0.615686
Ks 0.300000 0.300000 0.300000
Ke 0.000000 0.000000 0.000000
Ni 1.000000
d 1.000000
illum 2
shell.density 2698.899902
shell.heat_capacity 903.000000
shell.thermal_conductivity 237.000000
shell.thickness 0.010000
front.specular_reflectance 0.200000
front.diffuse_reflectance 0.100000
front.absorbance 0.700000
front.transmittance 0.000000
front.emissivity 0.900000
rear.specular_reflectance 0.200000
rear.diffuse_reflectance 0.100000
rear.absorbance 0.700000
rear.transmittance 0.000000
rear.emissivity 0.900000

newmtl lt_gray_metal
Ns 400.000000
Ka 1.000000 1.000000 1.000000
Kd 0.784314 0.784314 0.784314
Ks 0.000000 0.000000 0.000000
Ke 0.000000 0.000000 0.000000
Ni 1.000000
d 1.000000
illum 2
shell.density 2698.899902
shell.heat_capacity 903.000000
shell.thermal_conductivity 237.000000
shell.thickness 0.010000
front.specular_reflectance 0.200000
front.diffuse_reflectance 0.100000
front.absorbance 0.700000
front.transmittance 0.000000
front.emissivity 0.900000
rear.specular_reflectance 0.200000
rear.diffuse_reflectance 0.100000
rear.absorbance 0.700000
rear.transmittance 0.000000
rear.emissivity 0.900000

newmtl lt_gray_metal_sm
Ns 400.000000
Ka 1.000000 1.000000 1.000000
Kd 0.690196 0.690196 0.690196
Ks 0.000000 0.000000 0.000000
Ke 0.000000 0.000000 0.000000
Ni 1.000000
d 1.000000
illum 2
shell.density 2698.899902
shell.heat_capacity 903.000000
shell.thermal_conductivity 237.000000
shell.thickness 0.010000
front.specular_reflectance 0.200000
front.diffuse_reflectance 0.100000
front.absorbance 0.700000
front.transmittance 0.000000
front.emissivity 0.900000
rear.specular_reflectance 0.200000
rear.diffuse_reflectance 0.100000
rear.absorbance 0.700000
rear.transmittance 0.000000
rear.emissivity 0.900000

newmtl med_gray
Ns 200.000000
Ka 0.705000 0.705000 0.705000
Kd 0.666667 0.674510 0.643137
Ks 0.300000 0.300000 0.300000
Ke 0.000000 0.000000 0.000000
Ni 1.000000
d 1.000000
illum 2
shell.density 2698.899902
shell.heat_capacity 903.000000
shell.thermal_conductivity 237.000000
shell.thickness 0.010000
front.specular_reflectance 0.200000
front.diffuse_reflectance 0.100000
front.absorbance 0.700000
front.transmittance 0.000000
front.emissivity 0.900000
rear.specular_reflectance 0.200000
rear.diffuse_reflectance 0.100000
rear.absorbance 0.700000
rear.transmittance 0.000000
rear.emissivity 0.900000

newmtl metal
Ns 400.000000
Ka 1.000000 1.000000 1.000000
Kd 0.788235 0.788235 0.788235
Ks 0.900000 0.900000 0.900000
Ke 0.000000 0.000000 0.000000
Ni 1.000000
d 1.000000
illum 2
shell.density 2698.899902
shell.heat_capacity 903.000000
shell.thermal_conductivity 237.000000
shell.thickness 0.010000
front.specular_reflectance 0.200000
front.diffuse_reflectance 0.100000
front.absorbance 0.700000
front.transmittance 0.000000
front.emissivity 0.900000
rear.specular_reflectance 0.200000
rear.diffuse_reflectance 0.100000
rear.absorbance 0.700000
rear.transmittance 0.000000
rear.emissivity 0.900000

newmtl metal_smooth
Ns 400.000000
Ka 1.000000 1.000000 1.000000
Kd 0.784314 0.784314 0.784314
Ks 0.000000 0.000000 0.000000
Ke 0.000000 0.000000 0.000000
Ni 1.000000
d 1.000000
illum 2
shell.density 2698.899902
shell.heat_capacity 903.000000
shell.thermal_conductivity 237.000000
shell.thickness 0.010000
front.specular_reflectance 0.200000
front.diffuse_reflectance 0.100000
front.absorbance 0.700000
front.transmittance 0.000000
front.emissivity 0.900000
rear.specular_reflectance 0.200000
rear.diffuse_reflectance 0.100000
rear.absorbance 0.700000
rear.transmittance 0.000000
rear.emissivity 0.900000

newmtl mlm_aft
Ns 200.000000
Ka 1.000000 1.000000 1.000000
Kd 0.752941 0.752941 0.752941
Ks 0.300000 0.300000 0.300000
Ke 0.000000 0.000000 0.000000
Ni 1.000000
d 1.000000
illum 2
shell.density 2698.899902
shell.heat_capacity 903.000000
shell.thermal_conductivity 237.000000
shell.thickness 0.010000
front.specular_reflectance 0.200000
front.diffuse_reflectance 0.100000
front.absorbance 0.700000
front.transmittance 0.000000
front.emissivity 0.900000
rear.specular_reflectance 0.200000
rear.diffuse_reflectance 0.100000
rear.absorbance 0.700000
rear.transmittance 0.000000
rear.emissivity 0.900000

newmtl mlm_body
Ns 200.000000
Ka 0.650000 0.650000 0.650000
Kd 0.956863 0.917647 0.850980
Ks 0.300000 0.300000 0.300000
Ke 0.000000 0.000000 0.000000
Ni 1.000000
d 1.000000
illum 2
shell.density 2698.899902
shell.heat_capacity 903.000000
shell.thermal_conductivity 237.000000
shell.thickness 0.010000
front.specular_reflectance 0.200000
front.diffuse_reflectance 0.100000
front.absorbance 0.700000
front.transmittance 0.000000
front.emissivity 0.900000
rear.specular_reflectance 0.200000
rear.diffuse_reflectance 0.100000
rear.absorbance 0.700000
rear.transmittance 0.000000
rear.emissivity 0.900000
map_Bump  C:\\side_b.tga

newmtl mlm_body_2
Ns 200.000000
Ka 0.650000 0.650000 0.650000
Kd 0.956863 0.917647 0.850980
Ks 0.300000 0.300000 0.300000
Ke 0.000000 0.000000 0.000000
Ni 1.000000
d 1.000000
illum 2
shell.density 2698.899902
shell.heat_capacity 903.000000
shell.thermal_conductivity 237.000000
shell.thickness 0.010000
front.specular_reflectance 0.200000
front.diffuse_reflectance 0.100000
front.absorbance 0.700000
front.transmittance 0.000000
front.emissivity 0.900000
rear.specular_reflectance 0.200000
rear.diffuse_reflectance 0.100000
rear.absorbance 0.700000
rear.transmittance 0.000000
rear.emissivity 0.900000
map_Bump  C:\\side_b.tga

newmtl optical_sensors
Ns 600.000000
Ka 1.000000 1.000000 1.000000
Kd 0.235294 0.305882 0.376471
Ks 0.900000 0.900000 0.900000
Ke 0.000000 0.000000 0.000000
Ni 1.000000
d 1.000000
illum 2
shell.density 2698.899902
shell.heat_capacity 903.000000
shell.thermal_conductivity 237.000000
shell.thickness 0.010000
front.specular_reflectance 0.200000
front.diffuse_reflectance 0.100000
front.absorbance 0.700000
front.transmittance 0.000000
front.emissivity 0.900000
rear.specular_reflectance 0.200000
rear.diffuse_reflectance 0.100000
rear.absorbance 0.700000
rear.transmittance 0.000000
rear.emissivity 0.900000

newmtl orange_sm
Ns 400.000000
Ka 1.000000 1.000000 1.000000
Kd 0.913726 0.580392 0.247059
Ks 0.000000 0.000000 0.000000
Ke 0.000000 0.000000 0.000000
Ni 1.000000
d 1.000000
illum 2
shell.density 2698.899902
shell.heat_capacity 903.000000
shell.thermal_conductivity 237.000000
shell.thickness 0.010000
front.specular_reflectance 0.200000
front.diffuse_reflectance 0.100000
front.absorbance 0.700000
front.transmittance 0.000000
front.emissivity 0.900000
rear.specular_reflectance 0.200000
rear.diffuse_reflectance 0.100000
rear.absorbance 0.700000
rear.transmittance 0.000000
rear.emissivity 0.900000

newmtl pma1hatch
Ns 400.000000
Ka 0.750000 0.750000 0.750000
Kd 1.000000 1.000000 1.000000
Ks 0.100000 0.100000 0.100000
Ke 0.000000 0.000000 0.000000
Ni 1.000000
d 1.000000
illum 2
shell.density 2698.899902
shell.heat_capacity 903.000000
shell.thermal_conductivity 237.000000
shell.thickness 0.010000
front.specular_reflectance 0.200000
front.diffuse_reflectance 0.100000
front.absorbance 0.700000
front.transmittance 0.000000
front.emissivity 0.900000
rear.specular_reflectance 0.200000
rear.diffuse_reflectance 0.100000
rear.absorbance 0.700000
rear.transmittance 0.000000
rear.emissivity 0.900000

newmtl pma_black_cover_wrinkled
Ns 200.000000
Ka 0.705000 0.705000 0.705000
Kd 0.403922 0.372549 0.427451
Ks 0.300000 0.300000 0.300000
Ke 0.000000 0.000000 0.000000
Ni 1.000000
d 1.000000
illum 2
shell.density 2698.899902
shell.heat_capacity 903.000000
shell.thermal_conductivity 237.000000
shell.thickness 0.010000
front.specular_reflectance 0.200000
front.diffuse_reflectance 0.100000
front.absorbance 0.700000
front.transmittance 0.000000
front.emissivity 0.900000
rear.specular_reflectance 0.200000
rear.diffuse_reflectance 0.100000
rear.absorbance 0.700000
rear.transmittance 0.000000
rear.emissivity 0.900000

newmtl pma_black_panels
Ns 200.000000
Ka 0.705000 0.705000 0.705000
Kd 0.286275 0.247059 0.227451
Ks 0.300000 0.300000 0.300000
Ke 0.000000 0.000000 0.000000
Ni 1.000000
d 1.000000
illum 2
shell.density 2698.899902
shell.heat_capacity 903.000000
shell.thermal_conductivity 237.000000
shell.thickness 0.010000
front.specular_reflectance 0.200000
front.diffuse_reflectance 0.100000
front.absorbance 0.700000
front.transmittance 0.000000
front.emissivity 0.900000
rear.specular_reflectance 0.200000
rear.diffuse_reflectance 0.100000
rear.absorbance 0.700000
rear.transmittance 0.000000
rear.emissivity 0.900000

newmtl probe
Ns 200.000000
Ka 0.705000 0.705000 0.705000
Kd 0.666667 0.674510 0.643137
Ks 0.300000 0.300000 0.300000
Ke 0.000000 0.000000 0.000000
Ni 1.000000
d 1.000000
illum 2
shell.density 2698.899902
shell.heat_capacity 903.000000
shell.thermal_conductivity 237.000000
shell.thickness 0.010000
front.specular_reflectance 0.200000
front.diffuse_reflectance 0.100000
front.absorbance 0.700000
front.transmittance 0.000000
front.emissivity 0.900000
rear.specular_reflectance 0.200000
rear.diffuse_reflectance 0.100000
rear.absorbance 0.700000
rear.transmittance 0.000000
rear.emissivity 0.900000

newmtl red
Ns 400.000000
Ka 1.000000 1.000000 1.000000
Kd 0.639216 0.145098 0.003922
Ks 0.000000 0.000000 0.000000
Ke 0.000000 0.000000 0.000000
Ni 1.000000
d 1.000000
illum 2
shell.density 2698.899902
shell.heat_capacity 903.000000
shell.thermal_conductivity 237.000000
shell.thickness 0.010000
front.specular_reflectance 0.200000
front.diffuse_reflectance 0.100000
front.absorbance 0.700000
front.transmittance 0.000000
front.emissivity 0.900000
rear.specular_reflectance 0.200000
rear.diffuse_reflectance 0.100000
rear.absorbance 0.700000
rear.transmittance 0.000000
rear.emissivity 0.900000

newmtl rm_handrails
Ns 400.000000
Ka 1.000000 1.000000 1.000000
Kd 1.000000 1.000000 1.000000
Ks 0.900000 0.900000 0.900000
Ke 0.000000 0.000000 0.000000
Ni 1.000000
d 1.000000
illum 2
shell.density 2698.899902
shell.heat_capacity 903.000000
shell.thermal_conductivity 237.000000
shell.thickness 0.010000
front.specular_reflectance 0.200000
front.diffuse_reflectance 0.100000
front.absorbance 0.700000
front.transmittance 0.000000
front.emissivity 0.900000
rear.specular_reflectance 0.200000
rear.diffuse_reflectance 0.100000
rear.absorbance 0.700000
rear.transmittance 0.000000
rear.emissivity 0.900000

newmtl shield
Ns 400.000000
Ka 0.900000 0.900000 0.900000
Kd 1.000000 1.000000 1.000000
Ks 0.100000 0.100000 0.100000
Ke 0.000000 0.000000 0.000000
Ni 1.000000
d 1.000000
illum 2
shell.density 2698.899902
shell.heat_capacity 903.000000
shell.thermal_conductivity 237.000000
shell.thickness 0.010000
front.specular_reflectance 0.200000
front.diffuse_reflectance 0.100000
front.absorbance 0.700000
front.transmittance 0.000000
front.emissivity 0.900000
rear.specular_reflectance 0.200000
rear.diffuse_reflectance 0.100000
rear.absorbance 0.700000
rear.transmittance 0.000000
rear.emissivity 0.900000

newmtl sm-black-oxyde
Ns 400.000000
Ka 1.000000 1.000000 1.000000
Kd 0.270588 0.270588 0.270588
Ks 0.000000 0.000000 0.000000
Ke 0.000000 0.000000 0.000000
Ni 1.000000
d 1.000000
illum 2
shell.density 2698.899902
shell.heat_capacity 903.000000
shell.thermal_conductivity 237.000000
shell.thickness 0.010000
front.specular_reflectance 0.200000
front.diffuse_reflectance 0.100000
front.absorbance 0.700000
front.transmittance 0.000000
front.emissivity 0.900000
rear.specular_reflectance 0.200000
rear.diffuse_reflectance 0.100000
rear.absorbance 0.700000
rear.transmittance 0.000000
rear.emissivity 0.900000

newmtl sm-camlens
Ns 200.000000
Ka 0.260000 0.260000 0.260000
Kd 0.807843 0.701961 0.450980
Ks 0.045000 0.045000 0.045000
Ke 0.000000 0.000000 0.000000
Ni 1.000000
d 1.000000
illum 2
shell.density 2698.899902
shell.heat_capacity 903.000000
shell.thermal_conductivity 237.000000
shell.thickness 0.010000
front.specular_reflectance 0.200000
front.diffuse_reflectance 0.100000
front.absorbance 0.700000
front.transmittance 0.000000
front.emissivity 0.900000
rear.specular_reflectance 0.200000
rear.diffuse_reflectance 0.100000
rear.absorbance 0.700000
rear.transmittance 0.000000
rear.emissivity 0.900000

newmtl sm-darkgreen
Ns 200.000000
Ka 0.260000 0.260000 0.260000
Kd 0.670588 1.000000 0.862745
Ks 0.045000 0.045000 0.045000
Ke 0.000000 0.000000 0.000000
Ni 1.000000
d 1.000000
illum 2
shell.density 2698.899902
shell.heat_capacity 903.000000
shell.thermal_conductivity 237.000000
shell.thickness 0.010000
front.specular_reflectance 0.200000
front.diffuse_reflectance 0.100000
front.absorbance 0.700000
front.transmittance 0.000000
front.emissivity 0.900000
rear.specular_reflectance 0.200000
rear.diffuse_reflectance 0.100000
rear.absorbance 0.700000
rear.transmittance 0.000000
rear.emissivity 0.900000

newmtl sm-eva-handles
Ns 600.000000
Ka 0.800000 0.800000 0.800000
Kd 1.000000 1.000000 1.000000
Ks 0.400000 0.400000 0.400000
Ke 0.000000 0.000000 0.000000
Ni 1.000000
d 1.000000
illum 2
shell.density 2698.899902
shell.heat_capacity 903.000000
shell.thermal_conductivity 237.000000
shell.thickness 0.010000
front.specular_reflectance 0.200000
front.diffuse_reflectance 0.100000
front.absorbance 0.700000
front.transmittance 0.000000
front.emissivity 0.900000
rear.specular_reflectance 0.200000
rear.diffuse_reflectance 0.100000
rear.absorbance 0.700000
rear.transmittance 0.000000
rear.emissivity 0.900000

newmtl sm-glass
Ns 200.000000
Ka 0.800000 0.800000 0.800000
Kd 0.741176 0.690196 0.576471
Ks 0.300000 0.300000 0.300000
Ke 0.000000 0.000000 0.000000
Ni 1.000000
d 1.000000
illum 2
shell.density 2698.899902
shell.heat_capacity 903.000000
shell.thermal_conductivity 237.000000
shell.thickness 0.010000
front.specular_reflectance 0.200000
front.diffuse_reflectance 0.100000
front.absorbance 0.700000
front.transmittance 0.000000
front.emissivity 0.900000
rear.specular_reflectance 0.200000
rear.diffuse_reflectance 0.100000
rear.absorbance 0.700000
rear.transmittance 0.000000
rear.emissivity 0.900000

newmtl sm-orangewrinkled
Ns 400.000000
Ka 1.000000 1.000000 1.000000
Kd 0.913726 0.580392 0.247059
Ks 0.000000 0.000000 0.000000
Ke 0.000000 0.000000 0.000000
Ni 1.000000
d 1.000000
illum 2
shell.density 2698.899902
shell.heat_capacity 903.000000
shell.thermal_conductivity 237.000000
shell.thickness 0.010000
front.specular_reflectance 0.200000
front.diffuse_reflectance 0.100000
front.absorbance 0.700000
front.transmittance 0.000000
front.emissivity 0.900000
rear.specular_reflectance 0.200000
rear.diffuse_reflectance 0.100000
rear.absorbance 0.700000
rear.transmittance 0.000000
rear.emissivity 0.900000

newmtl sm-panels-pivot
Ns 800.000000
Ka 0.800000 0.800000 0.800000
Kd 0.796079 0.454902 0.337255
Ks 0.750000 0.750000 0.750000
Ke 0.000000 0.000000 0.000000
Ni 1.000000
d 1.000000
illum 2
shell.density 2698.899902
shell.heat_capacity 903.000000
shell.thermal_conductivity 237.000000
shell.thickness 0.010000
front.specular_reflectance 0.200000
front.diffuse_reflectance 0.100000
front.absorbance 0.700000
front.transmittance 0.000000
front.emissivity 0.900000
rear.specular_reflectance 0.200000
rear.diffuse_reflectance 0.100000
rear.absorbance 0.700000
rear.transmittance 0.000000
rear.emissivity 0.900000

newmtl sm-rcs
Ns 200.000000
Ka 0.705000 0.705000 0.705000
Kd 0.650980 0.470588 0.200000
Ks 0.600000 0.600000 0.600000
Ke 0.000000 0.000000 0.000000
Ni 1.000000
d 1.000000
illum 2
shell.density 2698.899902
shell.heat_capacity 903.000000
shell.thermal_conductivity 237.000000
shell.thickness 0.010000
front.specular_reflectance 0.200000
front.diffuse_reflectance 0.100000
front.absorbance 0.700000
front.transmittance 0.000000
front.emissivity 0.900000
rear.specular_reflectance 0.200000
rear.diffuse_reflectance 0.100000
rear.absorbance 0.700000
rear.transmittance 0.000000
rear.emissivity 0.900000

newmtl sm-rear
Ns 200.000000
Ka 1.000000 1.000000 1.000000
Kd 0.317647 0.317647 0.317647
Ks 0.300000 0.300000 0.300000
Ke 0.000000 0.000000 0.000000
Ni 1.000000
d 1.000000
illum 2
shell.density 2698.899902
shell.heat_capacity 903.000000
shell.thermal_conductivity 237.000000
shell.thickness 0.010000
front.specular_reflectance 0.200000
front.diffuse_reflectance 0.100000
front.absorbance 0.700000
front.transmittance 0.000000
front.emissivity 0.900000
rear.specular_reflectance 0.200000
rear.diffuse_reflectance 0.100000
rear.absorbance 0.700000
rear.transmittance 0.000000
rear.emissivity 0.900000

newmtl sm-rearcyl-aft
Ns 400.000000
Ka 1.000000 1.000000 1.000000
Kd 0.592157 0.466667 0.329412
Ks 0.000000 0.000000 0.000000
Ke 0.000000 0.000000 0.000000
Ni 1.000000
d 1.000000
illum 2
shell.density 2698.899902
shell.heat_capacity 903.000000
shell.thermal_conductivity 237.000000
shell.thickness 0.010000
front.specular_reflectance 0.200000
front.diffuse_reflectance 0.100000
front.absorbance 0.700000
front.transmittance 0.000000
front.emissivity 0.900000
rear.specular_reflectance 0.200000
rear.diffuse_reflectance 0.100000
rear.absorbance 0.700000
rear.transmittance 0.000000
rear.emissivity 0.900000
map_Kd Objects\Modules\sm\sm-rearcyl-aft.jpg
map_Bump  Objects\\Modules\\sm\\sm-rearcyl-aft-b.jpg

newmtl sm-rearcyl-fwd
Ns 200.000000
Ka 0.705000 0.705000 0.705000
Kd 0.666667 0.674510 0.643137
Ks 0.300000 0.300000 0.300000
Ke 0.000000 0.000000 0.000000
Ni 1.000000
d 1.000000
illum 2
shell.density 2698.899902
shell.heat_capacity 903.000000
shell.thermal_conductivity 237.000000
shell.thickness 0.010000
front.specular_reflectance 0.200000
front.diffuse_reflectance 0.100000
front.absorbance 0.700000
front.transmittance 0.000000
front.emissivity 0.900000
rear.specular_reflectance 0.200000
rear.diffuse_reflectance 0.100000
rear.absorbance 0.700000
rear.transmittance 0.000000
rear.emissivity 0.900000

newmtl sm-shield
Ns 400.000000
Ka 1.000000 1.000000 1.000000
Kd 1.000000 1.000000 1.000000
Ks 0.000000 0.000000 0.000000
Ke 0.000000 0.000000 0.000000
Ni 1.000000
d 1.000000
illum 2
shell.density 2698.899902
shell.heat_capacity 903.000000
shell.thermal_conductivity 237.000000
shell.thickness 0.010000
front.specular_reflectance 0.200000
front.diffuse_reflectance 0.100000
front.absorbance 0.700000
front.transmittance 0.000000
front.emissivity 0.900000
rear.specular_reflectance 0.200000
rear.diffuse_reflectance 0.100000
rear.absorbance 0.700000
rear.transmittance 0.000000
rear.emissivity 0.900000

newmtl sm-shield-bel
Ns 400.000000
Ka 1.000000 1.000000 1.000000
Kd 1.000000 1.000000 1.000000
Ks 0.000000 0.000000 0.000000
Ke 0.000000 0.000000 0.000000
Ni 1.000000
d 1.000000
illum 2
shell.density 2698.899902
shell.heat_capacity 903.000000
shell.thermal_conductivity 237.000000
shell.thickness 0.010000
front.specular_reflectance 0.200000
front.diffuse_reflectance 0.100000
front.absorbance 0.700000
front.transmittance 0.000000
front.emissivity 0.900000
rear.specular_reflectance 0.200000
rear.diffuse_reflectance 0.100000
rear.absorbance 0.700000
rear.transmittance 0.000000
rear.emissivity 0.900000

newmtl sm-side
Ns 200.000000
Ka 0.800000 0.800000 0.800000
Kd 0.317647 0.317647 0.317647
Ks 0.300000 0.300000 0.300000
Ke 0.000000 0.000000 0.000000
Ni 1.000000
d 1.000000
illum 2
shell.density 2698.899902
shell.heat_capacity 903.000000
shell.thermal_conductivity 237.000000
shell.thickness 0.010000
front.specular_reflectance 0.200000
front.diffuse_reflectance 0.100000
front.absorbance 0.700000
front.transmittance 0.000000
front.emissivity 0.900000
rear.specular_reflectance 0.200000
rear.diffuse_reflectance 0.100000
rear.absorbance 0.700000
rear.transmittance 0.000000
rear.emissivity 0.900000
map_Kd Objects\Modules\sm\sm-side-c.jpg
map_Bump  Objects\\Modules\\sm\\sm-side-b.jpg

newmtl sm-smcyl
Ns 200.000000
Ka 0.705000 0.705000 0.705000
Kd 0.666667 0.674510 0.643137
Ks 0.300000 0.300000 0.300000
Ke 0.000000 0.000000 0.000000
Ni 1.000000
d 1.000000
illum 2
shell.density 2698.899902
shell.heat_capacity 903.000000
shell.thermal_conductivity 237.000000
shell.thickness 0.010000
front.specular_reflectance 0.200000
front.diffuse_reflectance 0.100000
front.absorbance 0.700000
front.transmittance 0.000000
front.emissivity 0.900000
rear.specular_reflectance 0.200000
rear.diffuse_reflectance 0.100000
rear.absorbance 0.700000
rear.transmittance 0.000000
rear.emissivity 0.900000

newmtl sm-targets
Ns 200.000000
Ka 0.895000 0.895000 0.895000
Kd 1.000000 1.000000 1.000000
Ks 0.045000 0.045000 0.045000
Ke 0.000000 0.000000 0.000000
Ni 1.000000
d 1.000000
illum 2
shell.density 2698.899902
shell.heat_capacity 903.000000
shell.thermal_conductivity 237.000000
shell.thickness 0.010000
front.specular_reflectance 0.200000
front.diffuse_reflectance 0.100000
front.absorbance 0.700000
front.transmittance 0.000000
front.emissivity 0.900000
rear.specular_reflectance 0.200000
rear.diffuse_reflectance 0.100000
rear.absorbance 0.700000
rear.transmittance 0.000000
rear.emissivity 0.900000

newmtl sm-tubes
Ns 600.000000
Ka 0.800000 0.800000 0.800000
Kd 1.000000 1.000000 1.000000
Ks 0.400000 0.400000 0.400000
Ke 0.000000 0.000000 0.000000
Ni 1.000000
d 1.000000
illum 2
shell.density 2698.899902
shell.heat_capacity 903.000000
shell.thermal_conductivity 237.000000
shell.thickness 0.010000
front.specular_reflectance 0.200000
front.diffuse_reflectance 0.100000
front.absorbance 0.700000
front.transmittance 0.000000
front.emissivity 0.900000
rear.specular_reflectance 0.200000
rear.diffuse_reflectance 0.100000
rear.absorbance 0.700000
rear.transmittance 0.000000
rear.emissivity 0.900000

newmtl sm-window-cover
Ns 400.000000
Ka 1.000000 1.000000 1.000000
Kd 0.270588 0.270588 0.270588
Ks 0.000000 0.000000 0.000000
Ke 0.000000 0.000000 0.000000
Ni 1.000000
d 1.000000
illum 2
shell.density 2698.899902
shell.heat_capacity 903.000000
shell.thermal_conductivity 237.000000
shell.thickness 0.010000
front.specular_reflectance 0.200000
front.diffuse_reflectance 0.100000
front.absorbance 0.700000
front.transmittance 0.000000
front.emissivity 0.900000
rear.specular_reflectance 0.200000
rear.diffuse_reflectance 0.100000
rear.absorbance 0.700000
rear.transmittance 0.000000
rear.emissivity 0.900000

newmtl sm-window-seal
Ns 200.000000
Ka 0.800000 0.800000 0.800000
Kd 0.741176 0.690196 0.576471
Ks 0.300000 0.300000 0.300000
Ke 0.000000 0.000000 0.000000
Ni 1.000000
d 1.000000
illum 2
shell.density 2698.899902
shell.heat_capacity 903.000000
shell.thermal_conductivity 237.000000
shell.thickness 0.010000
front.specular_reflectance 0.200000
front.diffuse_reflectance 0.100000
front.absorbance 0.700000
front.transmittance 0.000000
front.emissivity 0.900000
rear.specular_reflectance 0.200000
rear.diffuse_reflectance 0.100000
rear.absorbance 0.700000
rear.transmittance 0.000000
rear.emissivity 0.900000

newmtl sm-wrinkled
Ns 200.000000
Ka 0.800000 0.800000 0.800000
Kd 0.956863 0.917647 0.850980
Ks 0.300000 0.300000 0.300000
Ke 0.000000 0.000000 0.000000
Ni 1.000000
d 1.000000
illum 2
shell.density 2698.899902
shell.heat_capacity 903.000000
shell.thermal_conductivity 237.000000
shell.thickness 0.010000
front.specular_reflectance 0.200000
front.diffuse_reflectance 0.100000
front.absorbance 0.700000
front.transmittance 0.000000
front.emissivity 0.900000
rear.specular_reflectance 0.200000
rear.diffuse_reflectance 0.100000
rear.absorbance 0.700000
rear.transmittance 0.000000
rear.emissivity 0.900000
map_Bump  Textures\\wrinkles.tif

newmtl white
Ns 200.000000
Ka 0.895000 0.895000 0.895000
Kd 1.000000 1.000000 1.000000
Ks 0.045000 0.045000 0.045000
Ke 0.000000 0.000000 0.000000
Ni 1.000000
d 1.000000
illum 2
shell.density 2698.899902
shell.heat_capacity 903.000000
shell.thermal_conductivity 237.000000
shell.thickness 0.010000
front.specular_reflectance 0.200000
front.diffuse_reflectance 0.100000
front.absorbance 0.700000
front.transmittance 0.000000
front.emissivity 0.900000
rear.specular_reflectance 0.200000
rear.diffuse_reflectance 0.100000
rear.absorbance 0.700000
rear.transmittance 0.000000
rear.emissivity 0.900000

newmtl white_mat
Ns 200.000000
Ka 0.750000 0.750000 0.750000
Kd 1.000000 1.000000 1.000000
Ks 0.100000 0.100000 0.100000
Ke 0.000000 0.000000 0.000000
Ni 1.000000
d 1.000000
illum 2
shell.density 2698.899902
shell.heat_capacity 903.000000
shell.thermal_conductivity 237.000000
shell.thickness 0.010000
front.specular_reflectance 0.200000
front.diffuse_reflectance 0.100000
front.absorbance 0.700000
front.transmittance 0.000000
front.emissivity 0.900000
rear.specular_reflectance 0.200000
rear.diffuse_reflectance 0.100000
rear.absorbance 0.700000
rear.transmittance 0.000000
rear.emissivity 0.900000

newmtl white_shiny
Ns 200.000000
Ka 0.750000 0.750000 0.750000
Kd 1.000000 1.000000 1.000000
Ks 0.100000 0.100000 0.100000
Ke 0.000000 0.000000 0.000000
Ni 1.000000
d 1.000000
illum 2
shell.density 2698.899902
shell.heat_capacity 903.000000
shell.thermal_conductivity 237.000000
shell.thickness 0.010000
front.specular_reflectance 0.200000
front.diffuse_reflectance 0.100000
front.absorbance 0.700000
front.transmittance 0.000000
front.emissivity 0.900000
rear.specular_reflectance 0.200000
rear.diffuse_reflectance 0.100000
rear.absorbance 0.700000
rear.transmittance 0.000000
rear.emissivity 0.900000

newmtl white_wrinkled
Ns 600.000000
Ka 1.000000 1.000000 1.000000
Kd 1.000000 1.000000 1.000000
Ks 0.900000 0.900000 0.900000
Ke 0.200000 0.200000 0.200000
Ni 1.000000
d 1.000000
illum 2
shell.density 2698.899902
shell.heat_capacity 903.000000
shell.thermal_conductivity 237.000000
shell.thickness 0.010000
front.specular_reflectance 0.200000
front.diffuse_reflectance 0.100000
front.absorbance 0.700000
front.transmittance 0.000000
front.emissivity 0.900000
rear.specular_reflectance 0.200000
rear.diffuse_reflectance 0.100000
rear.absorbance 0.700000
rear.transmittance 0.000000
rear.emissivity 0.900000
map_Bump  Textures\\wrinkles.tif

newmtl whiteshiny
Ns 600.000000
Ka 0.800000 0.800000 0.800000
Kd 1.000000 1.000000 1.000000
Ks 0.400000 0.400000 0.400000
Ke 0.000000 0.000000 0.000000
Ni 1.000000
d 1.000000
illum 2
shell.density 2698.899902
shell.heat_capacity 903.000000
shell.thermal_conductivity 237.000000
shell.thickness 0.010000
front.specular_reflectance 0.200000
front.diffuse_reflectance 0.100000
front.absorbance 0.700000
front.transmittance 0.000000
front.emissivity 0.900000
rear.specular_reflectance 0.200000
rear.diffuse_reflectance 0.100000
rear.absorbance 0.700000
rear.transmittance 0.000000
rear.emissivity 0.900000

newmtl whiteshiny.001
Ns 600.000000
Ka 0.800000 0.800000 0.800000
Kd 1.000000 1.000000 1.000000
Ks 0.400000 0.400000 0.400000
Ke 0.000000 0.000000 0.000000
Ni 1.000000
d 1.000000
illum 2
shell.density 2698.899902
shell.heat_capacity 903.000000
shell.thermal_conductivity 237.000000
shell.thickness 0.010000
front.specular_reflectance 0.200000
front.diffuse_reflectance 0.100000
front.absorbance 0.700000
front.transmittance 0.000000
front.emissivity 0.900000
rear.specular_reflectance 0.200000
rear.diffuse_reflectance 0.100000
rear.absorbance 0.700000
rear.transmittance 0.000000
rear.emissivity 0.900000
