v -0.37514269351959 -1.08314311504360 0.03328032791614
v -0.45676842331886 -0.97561776638031 0.03328032791614
v -0.53886425495147 -0.86747312545776 0.03328032791614
v -0.62046098709106 -0.75998604297637 0.03328032791614
v -0.70186537504196 -0.65275228023529 0.03328032791614
v -0.78332269191741 -0.54544872045517 0.03328032791614
v -0.86474162340164 -0.43819582462310 0.03328032791614
v -0.94615554809570 -0.33094948530197 0.03328032791614
v -1.02761149406430 -0.22364781796932 0.03328032791614
v -1.10907459259030 -0.11633668094873 0.03328032791614
v -1.19052445888510 -0.00904300436377 0.03328032791614
v -0.26254636049270 -1.08314299583430 0.13429133594036
v -0.34432914853096 -0.97541075944900 0.13429133594036
v -0.42604622244834 -0.86776506900787 0.13429133594036
v -0.50854243727352 -0.76064552914304 0.13323403758059
v -0.58926981687545 -0.65275108814239 0.13429133594036
v -0.67072641849517 -0.54544854164123 0.13429133594036
v -0.75210154056549 -0.43825334310531 0.13429133594036
v -0.83355814218521 -0.33095073699951 0.13429133594036
v -0.91501480340957 -0.22364816069603 0.13429133594036
v -0.99647146463394 -0.11634550243616 0.13429133594036
v -1.07792806625360 -0.00904297828674 0.13429133594036
v -0.66552424430847 -0.46282142400741 0.19522918760777
v -0.59418791532516 -0.54021787643432 0.20651693642139
v -0.52018129825592 -0.62036871910095 0.21832434833050
v -0.73009407520294 -0.38782864809036 0.18837475776672
v -0.78896915912628 -0.30342477560043 0.19303829967976
v -0.71301585435867 -0.35167145729064 0.22831964492798
v -0.66629874706268 -0.38323992490768 0.24873112142086
v -0.60195118188858 -0.42899489402771 0.27529776096344
v -0.84981155395507 -0.20923638343811 0.20260047912598
v -0.53176635998752 -0.48092161446723 0.30289794796526
v -0.74221628904342 -0.28682655096054 0.24628448486328
v -0.68375319242477 -0.29565462470054 0.29272013902664
v -0.61551988124847 -0.31682410836219 0.33951595425606
v -0.78256362676620 -0.20024892687797 0.26904985308647
v -0.54335135716465 -0.34147490888747 0.38747124665797
v -0.91260021924972 -0.11016961932182 0.21373888850212
v -0.71017980575561 -0.20095241069793 0.33350697159767
v -0.63307648897171 -0.20580978691577 0.39936906099320
v -0.82772773504257 -0.10606606304645 0.29267334938049
v -0.55500727002529 -0.20117525864266 0.47256187325109
v -0.74083429574966 -0.10532402992248 0.37113156914711
v -0.65199452638626 -0.10620511323213 0.45023050904274
v -0.56216353178024 -0.10566614568233 0.53118574619293
v -0.57019084692001 -0.00904309749603 0.58978682756424
v -0.67173826694488 -0.00904307328164 0.49868774414062
v -0.77328574657440 -0.00904304999858 0.40758860111237
v -0.87483322620391 -0.00904302578419 0.31648951768875
v -0.97638064622879 -0.00904300250113 0.22539041936398
v -0.46699221537948 -0.22989068705548 0.53196509611179
v -0.37977720902801 -0.25834509510507 0.59082843792011
v -0.29256223247886 -0.28679948825349 0.64969172012378
v -0.20454704372261 -0.31551496136980 0.70909503239145
v -0.21377974748611 -0.21375222504139 0.77011501789093
v -0.30024856328964 -0.19427937269210 0.70580446720123
v -0.38676968216896 -0.17417746782302 0.64187544584274
v -0.47362786531448 -0.15001815557479 0.58040720224381
v -0.47864699363708 -0.08960337936878 0.61704832315445
v -0.39345666766166 -0.09368620067834 0.69069284200668
v -0.30791175365448 -0.10203871130943 0.76174771785736
v -0.22228315472602 -0.11139768362045 0.83219224214554
v -0.48533976078033 -0.00904311984777 0.66590750217438
v -0.40048870444297 -0.00904314219951 0.74202817678452
v -0.31563764810562 -0.00904316455125 0.81814879179001
v -0.23078657686710 -0.00904318690300 0.89426946640015
v -0.14089904725551 -0.00904313661158 0.97490811347961
v -0.13239558041095 -0.11139763146638 0.91283100843430
v -0.12389209866523 -0.21375218033790 0.85075384378433
v -0.11538860201835 -0.31610691547393 0.78867655992508
v -0.10380355268716 -0.45555365085601 0.70410329103470
v -0.09221854805946 -0.59499996900558 0.61953026056290
v -0.08063349872827 -0.73444670438766 0.53495699167252
v -0.06904843449592 -0.87389361858367 0.45038363337517
v -0.06035638973116 -0.97851794958114 0.38692986965179
v -0.05166427791118 -1.08314299583430 0.32347562909126
v -0.19289116066429 -0.45581473082390 0.62400431639135
v -0.18130622309181 -0.59526101917115 0.53943122631491
v -0.16972124081584 -0.73470781415787 0.45485780841291
v -0.15806513918994 -0.87500769119749 0.36976728904675
v -0.15024438500404 -0.97851794958114 0.30629050731659
v -0.14155232906341 -1.08314299583430 0.24283622205257
v -0.42051030589698 -0.78938341360578 0.19263737965058
v -0.35752731561660 -0.87115073204040 0.19345457851887
v -0.27204865217208 -0.96071469783783 0.20914322137833
v -0.31196290254592 -0.86710500717163 0.23708607256413
v -0.33329526974319 -0.81783783655653 0.25150067675541
v -0.24510243535041 -0.91294413805007 0.26584973931313
v -0.24608027935028 -0.84629219770431 0.31036397814751
v -0.35653623938560 -0.53809142112731 0.42116454243660
v -0.43665552139282 -0.65567189455032 0.26921382546425
v -0.44892814755439 -0.50794792175293 0.35880729556084
v -0.46120077371597 -0.36022400856018 0.44840073585510
v -0.36880886554718 -0.39036747813224 0.51075798273087
v -0.27641695737838 -0.42051094770431 0.57311522960663
v -0.26414433121681 -0.56823492050170 0.48352178931236
v -0.25187170505523 -0.71595883369445 0.39392834901810
v -0.34426361322403 -0.68581533432006 0.33157110214233
v 0.55398658183245 -1.10648948040720 0.85091132104618
v -0.34419275714515 -0.68666821938047 0.33105383384656
v -0.36887972162605 -0.38951459307183 0.51127525102664
v -0.26334419351550 -0.56849597066727 0.48406181937635
v -0.25100071127506 -0.71707276892043 0.39395111078631
v -0.27568767575595 -0.41991911280947 0.57417252796640
v -0.44972828525570 -0.50768687158736 0.35826726549685
v -0.43738480301525 -0.65626372944516 0.26815652710448
v -0.46207176749614 -0.35911007333420 0.44837797408689
v -0.50779616832733 -0.76007610559463 0.13429133594036
v -0.51938122510910 -0.62062937021255 0.21886464953423
v -0.42058116197586 -0.78853052854538 0.19315463304520
v -0.53096628189086 -0.48118263483047 0.30343794822693
v -0.54255127906799 -0.34173589944839 0.38801121711731
v -0.55413633584976 -0.20228916406631 0.47258457541466
v -0.46692132949829 -0.23074357211589 0.53144788742065
v -0.37970632314682 -0.25919798016548 0.59031116962433
v -0.29249131679534 -0.28765237331390 0.64917445182800
v -0.20527632534503 -0.31610679626464 0.70803773403168
v -0.19369128346443 -0.45555353164672 0.62346446514130
v -0.18210622668266 -0.59500026702880 0.53889113664627
v -0.17052116990089 -0.73444700241088 0.45431783795357
v -0.24615114927291 -0.84543931484222 0.31088125705719
v -0.15893612802028 -0.87389373779296 0.36974453926086
v -0.33336615562439 -0.81698489189148 0.25201794505119

newmtl mtl_Satellite_shell
shell.density 2700.000000
shell.heat_capacity 922.000000
shell.thermal_conductivity 122.000000
shell.thickness 0.005000
front.specular_reflectance 0.000000
front.diffuse_reflectance 0.600000
front.absorbance 0.400000
front.transmittance 0.000000
front.emissivity 0.900000
rear.specular_reflectance 0.000000
rear.diffuse_reflectance 0.000000
rear.absorbance 0.000000
rear.transmittance 0.000000
rear.emissivity 0.000000

newmtl mtl_HOT_radiator
shell.density 2700.000000
shell.heat_capacity 922.000000
shell.thermal_conductivity 122.000000
shell.thickness 0.005000
front.specular_reflectance 0.000000
front.diffuse_reflectance 0.600000
front.absorbance 0.400000
front.transmittance 0.000000
front.emissivity 0.900000
rear.specular_reflectance 0.000000
rear.diffuse_reflectance 0.000000
rear.absorbance 0.000000
rear.transmittance 0.000000
rear.emissivity 0.000000

newmtl mtl_COLD_radiator
shell.density 2700.000000
shell.heat_capacity 922.000000
shell.thermal_conductivity 122.000000
shell.thickness 0.005000
front.specular_reflectance 0.000000
front.diffuse_reflectance 0.600000
front.absorbance 0.400000
front.transmittance 0.000000
front.emissivity 0.900000
rear.specular_reflectance 0.000000
rear.diffuse_reflectance 0.000000
rear.absorbance 0.000000
rear.transmittance 0.000000
rear.emissivity 0.000000

g Satellite_shell
usemtl mtl_Satellite_shell
f 1 12 13
f 1 13 2
f 2 13 14
f 2 14 3
f 3 14 15
f 3 15 4
f 4 15 16
f 4 16 5
f 5 16 17
f 5 17 6
f 6 17 18
f 6 18 7
f 7 18 19
f 7 19 8
f 8 19 20
f 8 20 9
f 9 20 21
f 9 21 10
f 10 21 22
f 10 22 11
f 12 82 85
f 12 85 13
f 13 84 14
f 13 85 84
f 14 83 15
f 14 84 83
f 15 24 16
f 15 25 24
f 16 23 17
f 16 24 23
f 17 23 26
f 17 26 18
f 18 26 27
f 18 27 19
f 19 27 31
f 19 31 20
f 20 31 38
f 20 38 21
f 21 38 50
f 21 50 22
f 23 28 26
f 23 29 28
f 24 29 23
f 24 30 29
f 25 30 24
f 25 32 30
f 26 28 33
f 26 33 27
f 27 33 36
f 27 36 31
f 29 33 28
f 29 34 33
f 30 34 29
f 30 35 34
f 31 36 41
f 31 41 38
f 32 35 30
f 32 37 35
f 34 36 33
f 34 39 36
f 35 39 34
f 35 40 39
f 37 40 35
f 37 42 40
f 38 41 49
f 38 49 50
f 39 41 36
f 39 43 41
f 40 43 39
f 40 44 43
f 42 44 40
f 42 45 44
f 42 51 58
f 42 58 45
f 43 48 49
f 43 49 41
f 44 47 48
f 44 48 43
f 45 46 47
f 45 47 44
f 45 58 59
f 45 59 63
f 45 63 46
f 51 52 57
f 51 57 58
f 52 53 56
f 52 56 57
f 53 54 55
f 53 55 56
f 56 55 62
f 56 62 61
f 57 56 61
f 57 61 60
f 58 57 60
f 58 60 59
f 59 60 64
f 59 64 63
f 60 61 65
f 60 65 64
f 61 62 66
f 61 66 65
f 67 62 68
f 67 66 62
f 68 55 69
f 68 62 55
f 69 54 70
f 69 55 54
f 70 54 77
f 70 77 71
f 71 77 78
f 71 78 72
f 72 78 79
f 72 79 73
f 73 79 80
f 73 80 74
f 74 80 81
f 74 81 75
f 75 81 82
f 75 82 76
f 82 81 88
f 82 88 85
f 84 86 87
f 84 87 83
f 85 86 84
f 85 88 86
f 86 88 89
f 86 89 87
f 88 80 89
f 88 81 80

g HOT_radiator
usemtl mtl_HOT_radiator
f 101 104 116
f 101 116 115
f 102 118 104
f 102 119 118
f 103 119 102
f 103 120 119
f 104 117 116
f 104 118 117
f 107 101 115
f 107 115 114
f 108 106 109
f 108 110 106
f 109 105 111
f 109 106 105
f 110 100 106
f 110 123 100
f 111 105 107
f 111 107 112
f 112 107 114
f 112 114 113
f 121 120 103
f 121 122 120
f 123 103 100
f 123 121 103

g COLD_radiator
usemtl mtl_COLD_radiator
f 90 93 92
f 90 94 93
f 96 94 90
f 96 95 94
f 97 90 98
f 97 96 90
f 98 90 92
f 98 92 91

